[
    {
        "_id": "b-100",
        "_parentId": "a-100",
        "_type": "block",
        "_classes": "",
        "title": "b-100",
        "displayTitle": "",
        "body": "",
        "_trackingId": 0
    },
    {
        "_id": "b-110",
        "_parentId": "a-100",
        "_type": "block",
        "_classes": "",
        "title": "b-110",
        "displayTitle": "",
        "body": "",
        "_trackingId": 1
    },
    {
        "_id": "b-120",
        "_parentId": "a-100",
        "_type": "block",
        "_classes": "",
        "title": "b-120",
        "displayTitle": "",
        "body": "",
        "_trackingId": 2
    },
    {
        "_id": "b-199",
        "_parentId": "a-100",
        "_type": "block",
        "_classes": "",
        "title": "b-199",
        "displayTitle": "",
        "body": "",
        "_trackingId": 3
    },
    {
        "_id": "b-200",
        "_parentId": "a-200",
        "_type": "block",
        "_classes": "",
        "title": "b-200",
        "displayTitle": "",
        "body": "",
        "_trackingId": 4
    },
    {
        "_id": "b-210",
        "_parentId": "a-200",
        "_type": "block",
        "_classes": "",
        "title": "b-210",
        "displayTitle": "",
        "body": "",
        "_trackingId": 5
    },
    {
        "_id": "b-220",
        "_parentId": "a-200",
        "_type": "block",
        "_classes": "",
        "title": "b-220",
        "displayTitle": "",
        "body": "",
        "_trackingId": 6
    },
    {
        "_id": "b-230",
        "_parentId": "a-200",
        "_type": "block",
        "_classes": "",
        "title": "b-230",
        "displayTitle": "",
        "body": "",
        "_trackingId": 7
    },
    {
        "_id": "b-240",
        "_parentId": "a-200",
        "_type": "block",
        "_classes": "",
        "title": "b-240",
        "displayTitle": "",
        "body": "",
        "_trackingId": 8
    },
    {
        "_id": "b-299",
        "_parentId": "a-200",
        "_type": "block",
        "_classes": "",
        "title": "b-299",
        "displayTitle": "",
        "body": "",
        "_trackingId": 9
    },
    {
        "_id": "b-300",
        "_parentId": "a-300",
        "_type": "block",
        "_classes": "",
        "title": "b-300",
        "displayTitle": "",
        "body": "",
        "_trackingId": 10
    },
    {
        "_id": "b-310",
        "_parentId": "a-300",
        "_type": "block",
        "_classes": "",
        "title": "b-310",
        "displayTitle": "",
        "body": "",
        "_trackingId": 11
    },
    {
        "_id": "b-320",
        "_parentId": "a-300",
        "_type": "block",
        "_classes": "",
        "title": "b-320",
        "displayTitle": "",
        "body": "",
        "_trackingId": 12
    },
    {
        "_id": "b-330",
        "_parentId": "a-300",
        "_type": "block",
        "_classes": "",
        "title": "b-330",
        "displayTitle": "",
        "body": "",
        "_trackingId": 13
    },
    {
        "_id": "b-340",
        "_parentId": "a-300",
        "_type": "block",
        "_classes": "",
        "title": "b-340",
        "displayTitle": "",
        "body": "",
        "_trackingId": 14
    },
    {
        "_id": "b-399",
        "_parentId": "a-300",
        "_type": "block",
        "_classes": "",
        "title": "b-399",
        "displayTitle": "",
        "body": "",
        "_trackingId": 15
    },
    {
        "_id": "b-400",
        "_parentId": "a-400",
        "_type": "block",
        "_classes": "",
        "title": "b-400",
        "displayTitle": "",
        "body": "",
        "_trackingId": 16
    },
    {
        "_id": "b-410",
        "_parentId": "a-400",
        "_type": "block",
        "_classes": "",
        "title": "b-410",
        "displayTitle": "",
        "body": "",
        "_trackingId": 17
    },
    {
        "_id": "b-420",
        "_parentId": "a-400",
        "_type": "block",
        "_classes": "",
        "title": "b-420",
        "displayTitle": "",
        "body": "",
        "_trackingId": 18
    },
    {
        "_id": "b-430",
        "_parentId": "a-400",
        "_type": "block",
        "_classes": "",
        "title": "b-430",
        "displayTitle": "",
        "body": "",
        "_trackingId": 19
    },
    {
        "_id": "b-440",
        "_parentId": "a-400",
        "_type": "block",
        "_classes": "",
        "title": "b-440",
        "displayTitle": "",
        "body": "",
        "_trackingId": 20
    },
    {
        "_id": "b-450",
        "_parentId": "a-400",
        "_type": "block",
        "_classes": "",
        "title": "b-450",
        "displayTitle": "",
        "body": "",
        "_trackingId": 21
    },
    {
        "_id": "b-460",
        "_parentId": "a-400",
        "_type": "block",
        "_classes": "",
        "title": "b-460",
        "displayTitle": "",
        "body": "",
        "_trackingId": 22
    },
    {
        "_id": "b-499",
        "_parentId": "a-400",
        "_type": "block",
        "_classes": "",
        "title": "b-499",
        "displayTitle": "",
        "body": "",
        "_trackingId": 23
    },
    {
        "_id": "b-500",
        "_parentId": "a-500",
        "_type": "block",
        "_classes": "",
        "title": "b-500",
        "displayTitle": "",
        "body": "",
        "_trackingId": 24
    },
    {
        "_id": "b-510",
        "_parentId": "a-500",
        "_type": "block",
        "_classes": "",
        "title": "b-510",
        "displayTitle": "",
        "body": "",
        "_trackingId": 25
    },
    {
        "_id": "b-520",
        "_parentId": "a-500",
        "_type": "block",
        "_classes": "",
        "title": "b-520",
        "displayTitle": "",
        "body": "",
        "_trackingId": 26
    },
    {
        "_id": "b-530",
        "_parentId": "a-500",
        "_type": "block",
        "_classes": "",
        "title": "b-530",
        "displayTitle": "",
        "body": "",
        "_trackingId": 27
    },
    {
        "_id": "b-599",
        "_parentId": "a-500",
        "_type": "block",
        "_classes": "",
        "title": "b-599",
        "displayTitle": "",
        "body": "",
        "_trackingId": 28
    },
    {
        "_id": "b-600",
        "_parentId": "a-600",
        "_type": "block",
        "_classes": "",
        "title": "b-600",
        "displayTitle": "",
        "body": "",
        "_trackingId": 29
    },
    {
        "_id": "b-610",
        "_parentId": "a-600",
        "_type": "block",
        "_classes": "",
        "title": "b-610",
        "displayTitle": "",
        "body": "",
        "_trackingId": 30
    },
    {
        "_id": "b-620",
        "_parentId": "a-600",
        "_type": "block",
        "_classes": "",
        "title": "b-620",
        "displayTitle": "",
        "body": "",
        "_trackingId": 31
    },
    {
        "_id": "b-630",
        "_parentId": "a-600",
        "_type": "block",
        "_classes": "",
        "title": "b-630",
        "displayTitle": "",
        "body": "",
        "_trackingId": 32
    },
    {
        "_id": "b-640",
        "_parentId": "a-600",
        "_type": "block",
        "_classes": "",
        "title": "b-640",
        "displayTitle": "",
        "body": "",
        "_trackingId": 33
    },
    {
        "_id": "b-650",
        "_parentId": "a-600",
        "_type": "block",
        "_classes": "",
        "title": "b-650",
        "displayTitle": "",
        "body": "",
        "_trackingId": 34
    },
    {
        "_id": "b-699",
        "_parentId": "a-600",
        "_type": "block",
        "_classes": "",
        "title": "b-699",
        "displayTitle": "",
        "body": "",
        "_trackingId": 35
    },
    {
        "_id": "b-700",
        "_parentId": "a-700",
        "_type": "block",
        "_classes": "",
        "title": "b-700",
        "displayTitle": "",
        "body": "",
        "_trackingId": 36
    },
    {
        "_id": "b-710",
        "_parentId": "a-700",
        "_type": "block",
        "_classes": "",
        "title": "b-710",
        "displayTitle": "",
        "body": "",
        "_trackingId": 37
    },
    {
        "_id": "b-720",
        "_parentId": "a-700",
        "_type": "block",
        "_classes": "",
        "title": "b-720",
        "displayTitle": "",
        "body": "",
        "_trackingId": 38
    },
    {
        "_id": "b-730",
        "_parentId": "a-700",
        "_type": "block",
        "_classes": "",
        "title": "b-730",
        "displayTitle": "",
        "body": "",
        "_trackingId": 39
    },
    {
        "_id": "b-799",
        "_parentId": "a-700",
        "_type": "block",
        "_classes": "",
        "title": "b-799",
        "displayTitle": "",
        "body": "",
        "_trackingId": 40
    }
]